<svg xmlns="http://www.w3.org/2000/svg" viewBox="0 0 100 100" width="100" height="100">
	<style>
		tspan { white-space:pre }
		.shp0 { fill: #2280ce;stroke: #ffffff;stroke-width: 6.679 } 
		.shp1 { fill: #ffffff } 
	</style>
	<g id="Page 1">
		<path id="Path 1" class="shp0" d="M50,87.55c20.74,0 37.55,-16.81 37.55,-37.55c0,-20.73 -16.81,-37.55 -37.55,-37.55c-20.74,0 -37.55,16.81 -37.55,37.55c0,20.74 16.81,37.56 37.55,37.56z" />
		<path id="Path 2" class="shp1" d="M70.1,35.02l-5.99,-4l-19.08,28.63l-12.33,-9.35l-4.35,5.74l18.42,13.98z" />
	</g>
</svg>