<?xml version="1.0" encoding="UTF-8"?>
<svg width="120px" height="24px" viewBox="0 0 120 24" version="1.1" xmlns="http://www.w3.org/2000/svg" xmlns:xlink="http://www.w3.org/1999/xlink">
    <!-- Generator: Sketch 41.2 (35397) - http://www.bohemiancoding.com/sketch -->
    <title>Classic 105x21</title>
    <desc>Created with Sketch.</desc>
    <defs>
        <polygon id="path-1" points="6 21.3440741 80.6560261 21.3440741 80.6560261 1.07596296 6 1.07596296"></polygon>
    </defs>
    <g id="Page-1" stroke="none" stroke-width="1" fill="none" fill-rule="evenodd">
        <g id="Classic-105x21">
            <g id="Zimpler-Mobilbetalningar-Svart">
                <g id="zimpler_logo" transform="translate(0.372845, 0.925926)">
                    <rect id="Rectangle" fill="#2F3D3D" x="0" y="0" width="119" height="23" rx="2"></rect>
                    <mask id="mask-2" fill="white">
                        <use xlink:href="#path-1"></use>
                    </mask>
                    <g id="Clip-2"></g>
                    <path d="M21.5595093,4.37685185 C22.4745804,4.37892593 23.3306434,3.64146296 23.4715017,2.72990741 C23.6123599,1.81861111 22.9848427,1.07803704 22.0697715,1.07596296 C21.1548272,1.07401852 20.2988912,1.81148148 20.157906,2.72290741 C20.0170477,3.63446296 20.644565,4.37503704 21.5595093,4.37685185" id="Fill-1" fill="#FEFEFE" mask="url(#mask-2)"></path>
                    <path d="M65.2989213,10.4531111 C65.5948506,8.98375926 66.7624515,7.73607407 68.0711644,7.73607407 C68.8074344,7.73607407 69.3387619,8.29451852 69.1484129,8.92101852 L65.105146,11.7587407 C65.16187,11.0198519 65.2989213,10.4531111 65.2989213,10.4531111 Z M46.5121079,13.9115 L47.1520613,10.1847778 C47.4373311,9.30238889 48.4470691,8.12483333 49.5022372,8.05483333 C49.904635,8.02812963 50.3897712,8.0442037 50.845086,8.42012963 C51.2378395,8.8727963 51.4408785,9.554 51.4408785,10.3912778 C51.4408785,13.042463 50.1758189,14.8915 48.3875534,14.8915 C47.4932937,14.8915 46.7956011,14.4236667 46.5121079,13.9115 Z M80.6560261,5.31433333 C79.1304422,5.23124074 77.1429447,7.13653704 77.1429447,7.13653704 L76.5108591,5.51240741 L74.7781754,5.51240741 L73.9449543,10.3574444 C73.8874689,10.6908519 73.7117133,10.9910741 73.451189,11.2005556 L71.1573564,13.0458333 C71.1573564,13.0458333 70.2162709,13.7803148 68.917583,14.6389815 C68.3257245,14.9360926 67.8369082,15.0697407 67.3474574,15.0697407 C66.2881017,15.0697407 65.637235,14.6528519 65.3249357,13.9378148 C65.2749373,13.8074074 65.2336951,13.6706481 65.2008281,13.5301296 L71.0940337,9.46118519 C71.9400716,8.85607407 71.934488,8.0162037 71.8131722,7.60307407 C71.4324742,6.30664815 70.2903801,5.32988889 68.3980571,5.32988889 C64.8651794,5.32988889 62.4405136,8.40833333 62.4405136,12.7751667 C62.4405136,13.0698148 62.4592947,13.3573333 62.4940651,13.6366852 L60.8234353,14.8382222 C60.4950198,15.0426481 60.0294261,15.225037 59.7356541,15.2255556 C59.2342748,15.2245185 59.0163886,14.8269444 59.1713327,13.9585556 L61.3593312,1.46562963 L58.6114528,1.45888889 L57.5161846,7.67722222 C57.4696125,7.94140741 57.3484236,8.18614815 57.1674652,8.38098148 L54.1600776,11.6186111 C54.2341868,11.0835 54.2758098,10.5192222 54.2758098,9.92344444 C54.2758098,7.28962963 53.0801642,5.3435 51.077058,5.3435 C49.1405741,5.3435 47.6939215,7.01766667 47.6939215,7.01766667 L46.9349366,5.52316667 L45.223572,5.52316667 L44.2809637,11.0007963 C44.2395945,11.2408704 44.1364253,11.4655185 43.9822426,11.6516667 L42.2359808,13.7587963 C41.7499563,14.2869074 41.2413437,14.9535926 40.987545,14.9697963 C40.5275349,15.0508148 40.3304602,14.8763333 40.4831201,14.0074259 L41.1813203,10.0347963 C41.726353,6.89361111 40.7886937,5.31174074 38.1499488,5.31174074 C36.5774121,5.31174074 34.7258238,7.11644444 34.7258238,7.11644444 C34.3331972,5.93551852 33.3738382,5.31174074 31.9127191,5.31174074 C30.3170868,5.31174074 28.5826265,7.21211111 28.5826265,7.21211111 L27.866026,5.51240741 L26.1334692,5.51240741 L25.2412399,10.6988889 C25.1998707,10.9392222 25.0968285,11.1637407 24.9425189,11.3500185 L22.9462653,13.7587963 C22.4602408,14.2869074 21.9516282,14.9535926 21.6978295,14.9697963 C21.2378194,15.0508148 21.0407447,14.8763333 21.1934046,14.0074259 L22.7023647,5.5172037 L19.9547402,5.5172037 L19.5071662,8.01957407 C19.4486656,8.34675926 19.3055231,8.65177778 19.0927129,8.90351852 L15.0758411,13.6506852 C14.0300636,14.7890926 12.7302336,14.9537222 12.4636181,14.9760185 L9.62373766,14.9760185 L16.0878633,7.50805556 L16.4180554,5.48362963 L8.11439687,5.48362963 L7.71821712,7.75551852 L12.5428033,7.75551852 L6.3103958,15.2232222 L6,17.3420185 C6,17.3420185 11.8349587,17.3653519 11.9357168,17.3411111 C13.6456855,17.3411111 15.1687314,15.7947593 15.786985,15.1630741 L18.9005873,11.4118519 L18.3367735,14.5645741 C17.9878003,16.6140185 18.7510999,17.5818333 20.4082784,17.5496852 C21.4281684,17.5299815 22.1214196,16.8373704 22.8193659,16.1244074 L24.6937962,13.8812963 L24.0719894,17.4964074 L26.8198678,17.4964074 L28.022239,10.4098148 C28.1808632,9.53481481 29.2775274,8.04394444 30.4333266,8.04394444 C31.6546059,8.04394444 32.2397387,8.65359259 31.9562456,10.3245185 L30.7235454,17.4964074 L33.4495971,17.4964074 L34.7744262,9.87172222 C34.8537383,9.36927778 35.7420337,7.94062963 36.9720691,7.94062963 C38.2589553,7.94062963 38.6734086,8.65359259 38.3897885,10.3245185 L37.626489,14.5645741 C37.2775158,16.6140185 38.0408153,17.5818333 39.6979939,17.5496852 C40.7178839,17.5299815 41.411135,16.8373704 42.1090814,16.1244074 L43.7337737,14.1803519 L42.4994238,21.3518519 L45.2473022,21.3518519 L46.1413081,16.1165 C46.5190874,16.6065 47.0526992,17.0062778 47.7208242,17.2192593 C47.869804,17.2668333 48.0250019,17.3058519 48.1870524,17.333463 C49.9671964,17.4239444 51.553692,16.5441481 52.9624016,15.0445926 L52.9703963,15.0361667 L56.9644262,10.8084259 L56.3127981,14.5085741 C55.9593834,16.5571111 56.7205257,17.4947222 58.377958,17.4987407 C59.4526685,17.5012037 60.4608838,16.9561111 61.5177016,16.2332963 L62.9193048,15.2046852 C62.944304,15.2602963 62.9699377,15.3155185 62.9970941,15.3695741 C63.626388,16.6256852 64.795004,17.454537 66.5227386,17.4739815 C66.5255304,17.4742407 66.5280684,17.4745 66.5307333,17.4747593 C68.3445056,17.4747593 70.1210964,15.7247593 71.1454279,14.9902778 C71.4083633,14.8017963 72.406046,13.9821481 73.4737771,13.096 L72.7168225,17.4964074 L75.4647009,17.4964074 L76.6670721,10.4098148 C76.8256963,9.53481481 77.9224874,8.04394444 79.0781597,8.04394444 C79.521546,8.04394444 79.8796559,8.12574074 80.144368,8.308 L80.6560261,5.31433333 L80.6560261,5.31433333 Z" id="Fill-3" fill="#FEFEFE" mask="url(#mask-2)"></path>
                </g>
                <path d="M115.0625,9 L106.9375,9 C106.677082,9 106.45573,9.09722125 106.273438,9.29166667 C106.091145,9.48611208 106,9.72222083 106,10 L106,15 C106,15.2777792 106.091145,15.5138879 106.273438,15.7083333 C106.45573,15.9027787 106.677082,16 106.9375,16 L115.0625,16 C115.322918,16 115.54427,15.9027787 115.726563,15.7083333 C115.908855,15.5138879 116,15.2777792 116,15 L116,10 C116,9.72222083 115.908855,9.48611208 115.726563,9.29166667 C115.54427,9.09722125 115.322918,9 115.0625,9 Z M106.9375,9.66666667 L115.0625,9.66666667 C115.147136,9.66666667 115.220377,9.69965245 115.282227,9.765625 C115.344076,9.83159755 115.375,9.90972177 115.375,10 L115.375,10.6666667 L106.625,10.6666667 L106.625,10 C106.625,9.90972177 106.655924,9.83159755 106.717773,9.765625 C106.779623,9.69965245 106.852864,9.66666667 106.9375,9.66666667 Z M115.0625,15.3333333 L106.9375,15.3333333 C106.852864,15.3333333 106.779623,15.3003476 106.717773,15.234375 C106.655924,15.1684024 106.625,15.0902782 106.625,15 L106.625,12 L115.375,12 L115.375,15 C115.375,15.0902782 115.344076,15.1684024 115.282227,15.234375 C115.220377,15.3003476 115.147136,15.3333333 115.0625,15.3333333 Z" id="Credit-card---simple-line-icons" fill="#FEFEFE"></path>
                <path d="M102.990234,11.6191406 C102.983724,11.567057 102.970703,11.5149742 102.951172,11.4628906 C102.931641,11.410807 102.905599,11.3652346 102.873047,11.3261719 L102.863281,11.3164062 C102.85026,11.2968749 102.833984,11.2773438 102.814453,11.2578125 L102.755859,11.1992188 L101.125,9.55859375 L101.125,8.55273438 C101.125,8.46809854 101.094076,8.39485708 101.032227,8.33300781 C100.970377,8.27115854 100.897136,8.24023438 100.8125,8.24023438 L99.8261719,8.24023438 L98.6835938,7.26367188 C98.5078116,7.08788975 98.2864597,7 98.0195312,7 C97.7526028,7 97.5312509,7.08788975 97.3554688,7.26367188 L96.2226562,8.24023438 L95.1875,8.24023438 C95.1028642,8.24023438 95.0296227,8.27115854 94.9677734,8.33300781 C94.9059242,8.39485708 94.875,8.46809854 94.875,8.55273438 L94.875,9.578125 L93.2832031,11.1699219 C93.1985673,11.2285159 93.1302086,11.303385 93.078125,11.3945312 C93.0260414,11.4856775 93,11.586588 93,11.6972656 L93,16.375 C93,16.5507821 93.0618483,16.6988926 93.1855469,16.8193359 C93.3092454,16.9397792 93.4557283,17 93.625,17 L102.375,17 C102.544272,17 102.690755,16.9397792 102.814453,16.8193359 C102.938152,16.6988926 103,16.5507821 103,16.375 L103,11.6630859 C103,11.6468098 102.996745,11.6321615 102.990234,11.6191406 Z M95.6269531,14.0898438 L93.625,15.9453125 L93.625,12.3222656 L95.6269531,14.0898438 Z M96.2324219,14.3828125 C96.2519532,14.3697916 96.2698567,14.3567709 96.2861328,14.34375 C96.3024089,14.3307291 96.3203124,14.3144532 96.3398438,14.2949219 C96.3463542,14.2884114 96.3528646,14.2802735 96.359375,14.2705078 C96.3658854,14.2607421 96.3723958,14.249349 96.3789062,14.2363281 L97.7265625,12.9863281 C97.7591147,12.9602863 97.7965493,12.9391277 97.8388672,12.9228516 C97.8811851,12.9065754 97.92513,12.8984375 97.9707031,12.8984375 C98.0162763,12.8984375 98.0602211,12.9065754 98.1025391,12.9228516 C98.144857,12.9391277 98.1790363,12.9570312 98.2050781,12.9765625 L101.955078,16.375 L94.0742188,16.375 L96.2324219,14.3828125 Z M100.402344,14.1289062 L102.375,12.3808594 L102.375,15.90625 L100.402344,14.1289062 Z M101.769531,11.0722656 L101.759766,11.0722656 L102.296875,11.609375 L101.125,12.6542969 L101.125,10.4277344 L101.769531,11.0722656 Z M97.7949219,7.703125 C97.8274741,7.6770832 97.8632811,7.65592456 97.9023438,7.63964844 C97.9414064,7.62337231 97.9804686,7.61523438 98.0195312,7.61523438 C98.0585939,7.61523438 98.0976561,7.62337231 98.1367188,7.63964844 C98.1757814,7.65592456 98.2115884,7.6770832 98.2441406,7.703125 L98.8691406,8.24023438 L97.1699219,8.24023438 L97.7949219,7.703125 Z M100.5,8.86523438 L100.5,13.2109375 L99.9433594,13.7089844 L98.6054688,12.4980469 C98.4231762,12.354817 98.2132173,12.2815755 97.9755859,12.2783203 C97.7379545,12.2750651 97.5214854,12.3515617 97.3261719,12.5078125 L96.0859375,13.6601562 L95.5,13.1425781 L95.5,8.86523438 L100.5,8.86523438 Z M94.015625,11.3261719 L94.875,10.4667969 L94.875,12.5859375 L93.7324219,11.5800781 L93.9960938,11.3261719 L94.015625,11.3261719 Z" id="Envelope-letter---simple-line-icons" fill="#FEFEFE"></path>
                <path d="M89,8 L85,8 C84.7222208,8 84.4861121,8.09114492 84.2916667,8.2734375 C84.0972213,8.45573008 84,8.67708203 84,8.9375 L84,17.0625 C84,17.322918 84.0972213,17.5442699 84.2916667,17.7265625 C84.4861121,17.9088551 84.7222208,18 85,18 L89,18 C89.2777792,18 89.5138879,17.9088551 89.7083333,17.7265625 C89.9027787,17.5442699 90,17.322918 90,17.0625 L90,8.9375 C90,8.67708203 89.9027787,8.45573008 89.7083333,8.2734375 C89.5138879,8.09114492 89.2777792,8 89,8 Z M89.3333333,17.0625 C89.3333333,17.1471358 89.3003476,17.2203773 89.234375,17.2822266 C89.1684024,17.3440758 89.0902782,17.375 89,17.375 L85,17.375 C84.9097218,17.375 84.8315976,17.3440758 84.765625,17.2822266 C84.6996524,17.2203773 84.6666667,17.1471358 84.6666667,17.0625 L84.6666667,8.9375 C84.6666667,8.85286416 84.6996524,8.77962271 84.765625,8.71777344 C84.8315976,8.65592417 84.9097218,8.625 85,8.625 L89,8.625 C89.0902782,8.625 89.1684024,8.65592417 89.234375,8.71777344 C89.3003476,8.77962271 89.3333333,8.85286416 89.3333333,8.9375 L89.3333333,17.0625 Z M87,15.8125 C86.8194435,15.8125 86.6631951,15.8743483 86.53125,15.9980469 C86.3993049,16.1217454 86.3333333,16.2682283 86.3333333,16.4375 C86.3333333,16.6067717 86.3993049,16.7532546 86.53125,16.8769531 C86.6631951,17.0006517 86.8194435,17.0625 87,17.0625 C87.1875009,17.0625 87.3454855,17.0006517 87.4739583,16.8769531 C87.6024312,16.7532546 87.6666667,16.6067717 87.6666667,16.4375 C87.6666667,16.2682283 87.6024312,16.1217454 87.4739583,15.9980469 C87.3454855,15.8743483 87.1875009,15.8125 87,15.8125 Z M87.6666667,8.9375 L86.3333333,8.9375 C86.2430551,8.9375 86.1649309,8.96842417 86.0989583,9.03027344 C86.0329858,9.09212271 86,9.16536416 86,9.25 C86,9.33463584 86.0329858,9.40787729 86.0989583,9.46972656 C86.1649309,9.53157583 86.2430551,9.5625 86.3333333,9.5625 L87.6666667,9.5625 C87.7569449,9.5625 87.8350691,9.53157583 87.9010417,9.46972656 C87.9670142,9.40787729 88,9.33463584 88,9.25 C88,9.16536416 87.9670142,9.09212271 87.9010417,9.03027344 C87.8350691,8.96842417 87.7569449,8.9375 87.6666667,8.9375 Z" id="Screen-smartphone---simple-line-icons" fill="#FEFEFE"></path>
            </g>
        </g>
    </g>
</svg>