<?xml version="1.0" encoding="iso-8859-1"?>
<!-- Generator: Adobe Illustrator 19.0.0, SVG Export Plug-In . SVG Version: 6.00 Build 0)  -->
<svg version="1.1" xmlns="http://www.w3.org/2000/svg" xmlns:xlink="http://www.w3.org/1999/xlink" x="0px" y="0px"
	 viewBox="0 0 89.881 23.899" style="enable-background:new 0 0 89.881 23.899;" xml:space="preserve">
<g id="zimpler">
	<g id="zimpler_1_">
		<path id="zimpler-logo" style="fill:#32B6B2;" d="M18.734,3.892c1.103,0,2.129-0.87,2.299-1.942
			c0.17-1.076-0.585-1.946-1.687-1.951c-1.098-0.004-2.129,0.866-2.299,1.942S17.632,3.888,18.734,3.892z M71.393,11.052
			c0.357-1.732,1.763-3.2,3.339-3.2c0.888,0,1.527,0.656,1.294,1.393l-4.865,3.348C71.227,11.722,71.393,11.052,71.393,11.052z
			 M48.775,15.128l0.772-4.392c0.344-1.04,1.558-2.428,2.826-2.509c0.487-0.031,1.071-0.013,1.62,0.429
			c0.473,0.536,0.714,1.339,0.714,2.326c0,3.125-1.522,5.303-3.674,5.303C49.958,16.284,49.114,15.73,48.775,15.128z M89.881,4.995
			c-1.835-0.098-4.227,2.147-4.227,2.147l-0.763-1.915h-2.085l-1.004,5.714c-0.067,0.393-0.281,0.745-0.594,0.991l-2.763,2.178
			c0,0-1.134,0.862-2.696,1.875c-0.71,0.353-1.299,0.509-1.888,0.509c-1.277,0-2.062-0.491-2.437-1.335
			c-0.058-0.152-0.107-0.312-0.147-0.482l7.093-4.794c1.018-0.714,1.013-1.701,0.866-2.192c-0.455-1.527-1.835-2.678-4.111-2.678
			c-4.254,0-7.173,3.629-7.173,8.776c0,0.348,0.022,0.687,0.067,1.018l-2.013,1.415c-0.397,0.241-0.955,0.455-1.308,0.455
			c-0.607,0-0.866-0.469-0.683-1.491L66.652,0.46L63.34,0.451L62.023,7.78c-0.058,0.312-0.201,0.598-0.42,0.83l-3.62,3.816
			c0.089-0.634,0.138-1.299,0.138-2c0-3.102-1.437-5.397-3.852-5.397c-2.33,0-4.071,1.973-4.071,1.973L49.284,5.24h-2.062
			l-1.134,6.459c-0.049,0.281-0.174,0.545-0.357,0.763l-2.102,2.486c-0.585,0.62-1.201,1.406-1.504,1.428
			c-0.553,0.094-0.79-0.112-0.607-1.138l0.839-4.678c0.656-3.705-0.473-5.571-3.647-5.571c-1.897,0-4.124,2.129-4.124,2.129
			c-0.473-1.393-1.629-2.129-3.388-2.129c-1.919,0-4.008,2.241-4.008,2.241l-0.862-2.004h-2.089l-1.071,6.115
			c-0.049,0.281-0.174,0.549-0.362,0.768l-2.401,2.839c-0.585,0.62-1.201,1.406-1.504,1.428c-0.553,0.094-0.79-0.112-0.607-1.138
			l1.817-10.003h-3.308l-0.54,2.946c-0.071,0.388-0.241,0.745-0.5,1.045l-4.834,5.593c-1.259,1.344-2.826,1.536-3.147,1.562H4.361
			l7.785-8.802l0.397-2.384H2.544L2.067,7.874h5.812l-7.504,8.798L0,19.172c0,0,7.026,0.027,7.146,0
			c2.058,0,3.892-1.826,4.638-2.567l3.75-4.424L14.851,15.9c-0.42,2.415,0.5,3.553,2.495,3.517c1.228-0.022,2.062-0.839,2.906-1.683
			l2.254-2.643l-0.75,4.263h3.312l1.446-8.352c0.192-1.036,1.509-2.79,2.901-2.79c1.473,0,2.174,0.719,1.835,2.687l-1.486,8.454
			h3.285l1.594-8.99c0.094-0.589,1.165-2.272,2.647-2.272c1.549,0,2.049,0.839,1.705,2.808l-0.92,4.999
			c-0.42,2.415,0.5,3.553,2.495,3.517c1.228-0.022,2.062-0.839,2.901-1.683l1.96-2.29l-0.692,3.919l-0.795,4.535h3.308l1.076-6.173
			c0.455,0.58,1.098,1.049,1.902,1.303c0.179,0.054,0.366,0.098,0.562,0.134c2.143,0.107,4.053-0.933,5.749-2.701l0.009-0.009
			l4.807-4.981l-0.786,4.361c-0.424,2.415,0.491,3.517,2.486,3.522c1.294,0.004,2.509-0.638,3.781-1.491l1.687-1.21
			c0.031,0.063,0.063,0.129,0.094,0.192c0.759,1.482,2.165,2.46,4.245,2.482c0.004,0,0.009,0,0.009,0
			c2.187,0,4.325-2.062,5.557-2.928c0.317-0.223,1.518-1.187,2.803-2.232l-0.911,5.187h3.308l1.446-8.352
			c0.192-1.036,1.513-2.79,2.906-2.79c0.531,0,0.964,0.094,1.281,0.312L89.881,4.995z"/>
	</g>
</g>
<g id="Layer_1">
</g>
</svg>
