<?xml version="1.0" encoding="UTF-8" standalone="no"?>
<svg width="26px" height="26px" viewBox="0 0 26 26" version="1.1" xmlns="http://www.w3.org/2000/svg" xmlns:xlink="http://www.w3.org/1999/xlink">
    <!-- Generator: sketchtool 41 (35326) - http://www.bohemiancoding.com/sketch -->
    <title>B2779FA3-F3A7-465D-8896-36778F220265</title>
    <desc>Created with sketchtool.</desc>
    <defs>
        <path d="M13,25.5252256 C13,25.5252256 11.5070406,26.6939025 10.3297488,26.4250017 C9.15245696,26.1561009 9.50964919,25.0311048 8.31405562,24.4549267 C7.11846205,23.8787486 6.46796167,24.8642039 5.51812238,24.1061922 C4.56828308,23.3481805 5.38245383,22.492819 4.55621999,21.4560157 C3.72998614,20.4192124 2.71430862,21.0207359 2.18837359,19.9278417 C1.66243855,18.8349476 2.76689996,18.4207817 2.47077855,17.1224638 C2.17465714,15.824146 1,15.9199939 1,14.7175239 C1,13.515054 2.17271317,13.6194251 2.47077855,12.3125841 C2.76884393,11.005743 1.6715879,10.5810879 2.18837359,9.50720616 C2.70515927,8.43332438 3.71757944,9.0314041 4.55621999,7.97903218 C5.39486054,6.92666026 4.58904386,6.07029946 5.51812238,5.32885571 C6.44720089,4.58741196 7.10383598,5.56334789 8.31405562,4.98012121 C9.52427526,4.39689454 9.16406843,3.27629481 10.3297488,3.01004615 C11.4954292,2.74379748 11.6648744,3.90982228 13,3.90982228 C14.3351256,3.90982228 14.4929594,2.74114535 15.6702512,3.01004615 C16.847543,3.27894695 16.4903508,4.40394311 17.6859444,4.98012121 C18.881538,5.55629932 19.5320383,4.57084398 20.4818776,5.32885571 C21.4317169,6.08686744 20.6175462,6.94222887 21.44378,7.97903218 C22.2700139,9.01583548 23.2856914,8.41431199 23.8116264,9.50720616 C24.3375615,10.6001003 23.2331,11.0142662 23.5292215,12.3125841 C23.8253429,13.6109019 25,13.515054 25,14.7175239 C25,15.9199939 23.8272868,15.8156228 23.5292215,17.1224638 C23.2311561,18.4293048 24.3284121,18.85396 23.8116264,19.9278417 C23.2948407,21.0017235 22.2824206,20.4036438 21.44378,21.4560157 C20.6051395,22.5083876 21.4109561,23.3647484 20.4818776,24.1061922 C19.5527991,24.8476359 18.896164,23.8717 17.6859444,24.4549267 C16.4757247,25.0381534 16.8359316,26.1587531 15.6702512,26.4250017 C14.5045708,26.6912504 13,25.5252256 13,25.5252256 Z" id="path-1"></path>
        <filter x="-50%" y="-50%" width="200%" height="200%" filterUnits="objectBoundingBox" id="filter-2">
            <feOffset dx="1" dy="2" in="SourceAlpha" result="shadowOffsetOuter1"></feOffset>
            <feColorMatrix values="0 0 0 0 0.576470588   0 0 0 0 0.576470588   0 0 0 0 0.576470588  0 0 0 1 0" type="matrix" in="shadowOffsetOuter1"></feColorMatrix>
        </filter>
        <text id="text-3" font-family="EnzoOT-BlackIta, Enzo OT" font-size="22" font-style="italic" font-weight="700" fill="#FFFFFF">
            <tspan x="9.403" y="22">i</tspan>
        </text>
        <filter x="-50%" y="-50%" width="200%" height="200%" filterUnits="objectBoundingBox" id="filter-4">
            <feOffset dx="1" dy="2" in="SourceAlpha" result="shadowOffsetOuter1"></feOffset>
            <feColorMatrix values="0 0 0 0 0.575015944   0 0 0 0 0.575015944   0 0 0 0 0.575015944  0 0 0 1 0" type="matrix" in="shadowOffsetOuter1"></feColorMatrix>
        </filter>
    </defs>
    <g id="Desktop-Cashier-Devode-ZEPLIN" stroke="none" stroke-width="1" fill="none" fill-rule="evenodd">
        <g id="DP-Choose_New_Payment_Method-1440x900-Desktop" transform="translate(-393.000000, -623.000000)">
            <g id="Modal-Deposit-AddCard" transform="translate(310.000000, 72.000000)">
                <g id="Modal" transform="translate(0.000000, 157.000000)">
                    <g id="Modules" transform="translate(50.000000, 53.000000)">
                        <g id="Module-PayWith">
                            <g id="Payment-Info" transform="translate(23.000000, 318.000000)">
                                <g id="Icon-Notifier" transform="translate(9.198018, 20.294060)">
                                    <g id="Star-1" transform="translate(13.000000, 14.717524) rotate(-359.000000) translate(-13.000000, -14.717524) ">
                                        <use fill="black" fill-opacity="1" filter="url(#filter-2)" xlink:href="#path-1"></use>
                                        <use fill="#AEAEAE" fill-rule="evenodd" xlink:href="#path-1"></use>
                                    </g>
                                    <g id="i" fill-opacity="1" fill="#FFFFFF">
                                        <use filter="url(#filter-4)" xlink:href="#text-3"></use>
                                        <use xlink:href="#text-3"></use>
                                    </g>
                                </g>
                            </g>
                        </g>
                    </g>
                </g>
            </g>
        </g>
    </g>
</svg>